{"user_id":"207259","ip_address":"119.235.53.98","lat":null,"long":null,"city":null,"state":null,"country":null,"address":null,"created":"2015-10-28T09:02:18Z","device_id":"34325c9b35b4f976","body":{"action":"follow","followed_id":"208585"}}
{"user_id":"209250","ip_address":"122.170.61.217","lat":null,"long":null,"city":null,"state":null,"country":null,"address":null,"created":"2015-10-28T09:02:38Z","device_id":"735be0254ca89a40","body":{"action":"follow","followed_id":[39594,50597,6828,156086]}}
{"user_id":"209261","ip_address":"115.184.66.163","lat":null,"long":null,"city":null,"state":null,"country":null,"address":null,"created":"2015-10-28T09:14:28Z","device_id":"7f139f822bb3cba8","body":{"action":"follow","followed_id":[31868,172205,19848,10506,10940,1579]}}
{"user_id":"209261","ip_address":"115.184.66.163","lat":null,"long":null,"city":null,"state":null,"country":null,"address":null,"created":"2015-10-28T09:18:26Z","device_id":"7f139f822bb3cba8","body":{"action":"follow","followed_id":"75499"}}
{"user_id":"171371","ip_address":"182.58.186.92","lat":null,"long":null,"city":null,"state":null,"country":null,"address":null,"created":"2015-10-28T09:56:05Z","device_id":"9e25c218112053e4","body":{"action":"follow","followed_id":"128752"}}
