{"user_id":"209079","ip_address":"117.220.35.127","lat":"","long":"","city":"","state":"","country":"","address":"","created":"2015-10-28T04:00:01Z","device_id":"5edf3690340ba53e","body":{"action":"view","time_spent":"50.00","target_type":"trip","target_id":"31952"}}
{"user_id":"98287","ip_address":"1.22.175.82","lat":"28.636822","long":"77.284303","city":"New Delhi","state":"Delhi","country":"India","address":"Main Mangal Bazar Road B-184A-3,Laxmi Nagar,New Delhi,Delhi 110092,India","created":"2015-10-28T04:00:51Z","device_id":"9585DAD6-DE21-48E1-AF41-65C6EE09A652","body":{"action":"view","time_spent":76.8647,"target_type":"trip","target_id":null}}
{"user_id":"190873","ip_address":"27.107.209.205","lat":"","long":"","city":"","state":"","country":"","address":"","created":"2015-10-28T04:01:53Z","device_id":"348b9479fe94ad59","body":{"action":"view","time_spent":"4.00","target_type":"trip","target_id":"10-reasons-why-you-should-go-on-a-girls-trip-to-ladakh-805652"}}
{"user_id":"51411","ip_address":"115.118.229.125","lat":"","long":"","city":"","state":"","country":"","address":"","created":"2015-10-28T04:03:39Z","device_id":"e9e2f3f85593accc","body":{"action":"view","time_spent":"11.00","target_type":"trip","target_id":"12260"}}
{"user_id":"51411","ip_address":"115.118.229.125","lat":"","long":"","city":"","state":"","country":"","address":"","created":"2015-10-28T04:04:39Z","device_id":"e9e2f3f85593accc","body":{"action":"view","time_spent":"53.00","target_type":"trip","target_id":"6245"}}
{"user_id":"46399","ip_address":"101.212.68.228","lat":"25.7859601","long":"84.7236077","city":" Chhapra","state":" Bihar 841301","country":" India","address":"National Highway 19, Pratap Nagar, Chhapra, Bihar 841301, India","created":"2015-10-28T04:05:37Z","device_id":"315755ddfb3730e","body":{"action":"view","time_spent":"80.00","target_type":"trip","target_id":"15234"}}
{"user_id":"51411","ip_address":"115.118.229.125","lat":"","long":"","city":"","state":"","country":"","address":"","created":"2015-10-28T04:06:32Z","device_id":"e9e2f3f85593accc","body":{"action":"view","time_spent":"40.00","target_type":"trip","target_id":"1985"}}
{"user_id":"206715","ip_address":"45.118.84.184","lat":"12.9697536","long":"79.2894395","city":" Ranipet","state":" Tamil Nadu 632406","country":" India","address":"Road towards Temple, BHEL Township, Mukundarayapuram, Ranipet, Tamil Nadu 632406, India","created":"2015-10-28T04:06:32Z","device_id":"db2da62048fd8ccd","body":{"action":"view","time_spent":"4038.00","target_type":"trip","target_id":"the-city-of-eternal-peace-hampi-752292"}}
{"user_id":"46399","ip_address":"101.212.68.228","lat":"25.7859601","long":"84.7236077","city":" Chhapra","state":" Bihar 841301","country":" India","address":"National Highway 19, Pratap Nagar, Chhapra, Bihar 841301, India","created":"2015-10-28T04:07:49Z","device_id":"315755ddfb3730e","body":{"action":"view","time_spent":"131.00","target_type":"trip","target_id":"7115"}}
{"user_id":"97002","ip_address":"125.22.40.140","lat":"","long":"","city":"","state":"","country":"","address":"","created":"2015-10-28T04:08:42Z","device_id":"f37f8687ecdd1c01","body":{"action":"view","time_spent":"20.00","target_type":"trip","target_id":"the-city-of-eternal-peace-hampi-752292"}}
{"user_id":"110013","ip_address":"182.68.233.95","lat":"","long":"","city":"","state":"","country":"","address":"","created":"2015-10-28T04:08:48Z","device_id":"7570d4108d93dceb","body":{"action":"view","time_spent":"48.00","target_type":"trip","target_id":"13672"}}
{"user_id":"46399","ip_address":"101.212.68.228","lat":"25.7859601","long":"84.7236077","city":" Chhapra","state":" Bihar 841301","country":" India","address":"National Highway 19, Pratap Nagar, Chhapra, Bihar 841301, India","created":"2015-10-28T04:09:24Z","device_id":"315755ddfb3730e","body":{"action":"view","time_spent":"91.00","target_type":"trip","target_id":"10494"}}
{"user_id":"207257","ip_address":"106.194.128.206","lat":"","long":"","city":"","state":"","country":"","address":"","created":"2015-10-28T04:10:02Z","device_id":"c17b01427b096bfe","body":{"action":"view","time_spent":"96.00","target_type":"trip","target_id":"best-bars-in-mumbai-431368"}}
{"user_id":"209070","ip_address":"180.151.170.171","lat":"","long":"","city":"","state":"","country":"","address":"","created":"2015-10-28T04:10:46Z","device_id":"96da104b1b5ad367","body":{"action":"view","time_spent":"48.00","target_type":"trip","target_id":"12000"}}
{"user_id":"209070","ip_address":"180.151.170.171","lat":"","long":"","city":"","state":"","country":"","address":"","created":"2015-10-28T04:11:10Z","device_id":"96da104b1b5ad367","body":{"action":"view","time_spent":"12.00","target_type":"trip","target_id":"12202"}}
{"user_id":"209078","ip_address":"1.39.37.178","lat":"","long":"","city":"","state":"","country":"","address":"","created":"2015-10-28T04:12:02Z","device_id":"5f1a80948cc7cf55","body":{"action":"view","time_spent":"735.00","target_type":"trip","target_id":"39693"}}
{"user_id":"209070","ip_address":"180.151.170.171","lat":"","long":"","city":"","state":"","country":"","address":"","created":"2015-10-28T04:12:12Z","device_id":"96da104b1b5ad367","body":{"action":"view","time_spent":"57.00","target_type":"trip","target_id":"12204"}}
{"user_id":"209078","ip_address":"1.39.37.178","lat":"","long":"","city":"","state":"","country":"","address":"","created":"2015-10-28T04:12:25Z","device_id":"5f1a80948cc7cf55","body":{"action":"view","time_spent":"10.00","target_type":"trip","target_id":"42605"}}
{"user_id":"209070","ip_address":"180.151.170.171","lat":"","long":"","city":"","state":"","country":"","address":"","created":"2015-10-28T04:12:57Z","device_id":"96da104b1b5ad367","body":{"action":"view","time_spent":"31.00","target_type":"trip","target_id":"12971"}}
{"user_id":"209070","ip_address":"180.151.170.171","lat":"","long":"","city":"","state":"","country":"","address":"","created":"2015-10-28T04:13:31Z","device_id":"96da104b1b5ad367","body":{"action":"view","time_spent":"21.00","target_type":"trip","target_id":"12999"}}
{"user_id":"200718","ip_address":"182.64.136.165","lat":"","long":"","city":"","state":"","country":"","address":"","created":"2015-10-28T04:13:52Z","device_id":"f2275ebf90e487fd","body":{"action":"view","time_spent":"41.00","target_type":"trip","target_id":"42605"}}
{"user_id":"209070","ip_address":"180.151.170.171","lat":"","long":"","city":"","state":"","country":"","address":"","created":"2015-10-28T04:14:10Z","device_id":"96da104b1b5ad367","body":{"action":"view","time_spent":"14.00","target_type":"trip","target_id":"14451"}}
{"user_id":"200718","ip_address":"182.64.136.165","lat":"","long":"","city":"","state":"","country":"","address":"","created":"2015-10-28T04:14:40Z","device_id":"f2275ebf90e487fd","body":{"action":"view","time_spent":"9.00","target_type":"trip","target_id":"42582"}}
{"user_id":"175026","ip_address":"120.59.104.175","lat":"","long":"","city":"","state":"","country":"","address":"","created":"2015-10-28T04:14:59Z","device_id":"b9ae77adc5932ce8","body":{"action":"view","time_spent":"178.00","target_type":"trip","target_id":"triund-trek-134445"}}
{"user_id":"209070","ip_address":"180.151.170.171","lat":"","long":"","city":"","state":"","country":"","address":"","created":"2015-10-28T04:15:08Z","device_id":"96da104b1b5ad367","body":{"action":"view","time_spent":"3.00","target_type":"trip","target_id":"14646"}}
{"user_id":"209083","ip_address":"1.22.119.162","lat":"","long":"","city":"","state":"","country":"","address":"","created":"2015-10-28T04:15:27Z","device_id":"9fcc635d6cf1d495","body":{"action":"view","time_spent":"13.00","target_type":"trip","target_id":"1375"}}
{"user_id":"209070","ip_address":"180.151.170.171","lat":"","long":"","city":"","state":"","country":"","address":"","created":"2015-10-28T04:15:31Z","device_id":"96da104b1b5ad367","body":{"action":"view","time_spent":"8.00","target_type":"trip","target_id":"15590"}}
{"user_id":"209070","ip_address":"180.151.170.171","lat":"","long":"","city":"","state":"","country":"","address":"","created":"2015-10-28T04:16:16Z","device_id":"96da104b1b5ad367","body":{"action":"view","time_spent":"19.00","target_type":"trip","target_id":"16843"}}
{"user_id":"200718","ip_address":"182.64.136.165","lat":"","long":"","city":"","state":"","country":"","address":"","created":"2015-10-28T04:17:20Z","device_id":"f2275ebf90e487fd","body":{"action":"view","time_spent":"30.00","target_type":"trip","target_id":"41937"}}
{"user_id":"200718","ip_address":"182.64.136.165","lat":"","long":"","city":"","state":"","country":"","address":"","created":"2015-10-28T04:18:26Z","device_id":"f2275ebf90e487fd","body":{"action":"view","time_spent":"7.00","target_type":"trip","target_id":"41923"}}
{"user_id":"209083","ip_address":"1.22.119.162","lat":"","long":"","city":"","state":"","country":"","address":"","created":"2015-10-28T04:18:54Z","device_id":"9fcc635d6cf1d495","body":{"action":"view","time_spent":"113.00","target_type":"trip","target_id":"35840"}}
{"user_id":"66688","ip_address":"1.38.14.1","lat":"","long":"","city":"","state":"","country":"","address":"","created":"2015-10-28T04:20:26Z","device_id":"5d4c3e5e2f0caaa","body":{"action":"view","time_spent":"130.00","target_type":"trip","target_id":"42629"}}
{"user_id":"140827","ip_address":"69.158.55.15","lat":"","long":"","city":"","state":"","country":"","address":"","created":"2015-10-28T04:20:57Z","device_id":"4ad2cdd18579d0a9","body":{"action":"view","time_spent":"19.00","target_type":"trip","target_id":"3393"}}
{"user_id":"140827","ip_address":"69.158.55.15","lat":"","long":"","city":"","state":"","country":"","address":"","created":"2015-10-28T04:21:09Z","device_id":"4ad2cdd18579d0a9","body":{"action":"view","time_spent":"11.00","target_type":"trip","target_id":"33117"}}
{"user_id":"140827","ip_address":"69.158.55.15","lat":"","long":"","city":"","state":"","country":"","address":"","created":"2015-10-28T04:21:39Z","device_id":"4ad2cdd18579d0a9","body":{"action":"view","time_spent":"17.00","target_type":"trip","target_id":"3470"}}
{"user_id":"167622","ip_address":"27.97.116.6","lat":"28.627359","long":"77.0758756","city":" New Delhi","state":" Delhi 110058","country":" India","address":"A-36, Major Deepak Tyagi Marg, Chander Nagar, Janakpuri, New Delhi, Delhi 110058, India","created":"2015-10-28T04:22:07Z","device_id":"43c794c92c315275","body":{"action":"view","time_spent":"349.00","target_type":"trip","target_id":"triund-trek-134445"}}
{"user_id":"119202","ip_address":"182.68.208.57","lat":"28.6138752","long":"77.2811519","city":" New Delhi","state":" Delhi 110092","country":" India","address":"Noida Link Road, Block S, Mayur Vihar, New Delhi, Delhi 110092, India","created":"2015-10-28T04:22:34Z","device_id":"737bf08894202697","body":{"action":"view","time_spent":"44.00","target_type":"trip","target_id":"42577"}}
{"user_id":"209072","ip_address":"117.247.16.123","lat":"","long":"","city":"","state":"","country":"","address":"","created":"2015-10-28T04:23:08Z","device_id":"dbde6487a76731d5","body":{"action":"view","time_spent":"647.00","target_type":"trip","target_id":"39693"}}
{"user_id":"140827","ip_address":"69.158.55.15","lat":"","long":"","city":"","state":"","country":"","address":"","created":"2015-10-28T04:23:25Z","device_id":"4ad2cdd18579d0a9","body":{"action":"view","time_spent":"80.00","target_type":"trip","target_id":"5641"}}
{"user_id":"52686","ip_address":"101.59.66.52","lat":"18.548951","long":"73.904130","city":"Pune","state":"Maharashtra","country":"India","address":"Kalyani Nagar 9 Road 9\/5,Yerawada,Pune,Maharashtra 411006,India","created":"2015-10-28T04:23:49Z","device_id":"F6D16079-BA00-4A26-B0C6-8721EFB5589E","body":{"action":"view","time_spent":148.1368,"target_type":"trip","target_id":null}}
{"user_id":"16190","ip_address":"1.39.11.70","lat":"","long":"","city":"","state":"","country":"","address":"","created":"2015-10-28T04:24:46Z","device_id":"66c316ab2bc6b130","body":{"action":"view","time_spent":"58.00","target_type":"trip","target_id":"best-bars-in-mumbai-431368"}}
{"user_id":"140827","ip_address":"69.158.55.15","lat":"","long":"","city":"","state":"","country":"","address":"","created":"2015-10-28T04:24:51Z","device_id":"4ad2cdd18579d0a9","body":{"action":"view","time_spent":"71.00","target_type":"trip","target_id":"6835"}}
{"user_id":"180230","ip_address":"1.38.4.11","lat":"","long":"","city":"","state":"","country":"","address":"","created":"2015-10-28T04:25:18Z","device_id":"7519e19c53dc9d8","body":{"action":"view","time_spent":"70.00","target_type":"trip","target_id":"39693"}}
{"user_id":"52686","ip_address":"101.59.66.52","lat":"18.548749","long":"73.904094","city":"Pune","state":"Maharashtra","country":"India","address":"Kalyani Nagar 9 Road 9\/1,Yerawada,Pune,Maharashtra 411006,India","created":"2015-10-28T04:25:35Z","device_id":"F6D16079-BA00-4A26-B0C6-8721EFB5589E","body":{"action":"view","time_spent":106.1637,"target_type":"trip","target_id":null}}
{"user_id":"52686","ip_address":"101.59.66.52","lat":"18.548749","long":"73.904094","city":"Pune","state":"Maharashtra","country":"India","address":"Kalyani Nagar 9 Road 9\/1,Yerawada,Pune,Maharashtra 411006,India","created":"2015-10-28T04:25:42Z","device_id":"F6D16079-BA00-4A26-B0C6-8721EFB5589E","body":{"action":"view","time_spent":6.963392,"target_type":"trip","target_id":null}}
{"user_id":"165656","ip_address":"182.70.118.158","lat":"","long":"","city":"","state":"","country":"","address":"","created":"2015-10-28T04:26:15Z","device_id":"509a9cb5f48b722e","body":{"action":"view","time_spent":"59.00","target_type":"trip","target_id":"13805"}}
{"user_id":"180230","ip_address":"1.38.4.11","lat":"","long":"","city":"","state":"","country":"","address":"","created":"2015-10-28T04:26:36Z","device_id":"7519e19c53dc9d8","body":{"action":"view","time_spent":"52.00","target_type":"trip","target_id":"42577"}}
{"user_id":"52686","ip_address":"101.59.66.52","lat":"18.548850","long":"73.904104","city":"Pune","state":"Maharashtra","country":"India","address":"Kalyani Nagar 9 Road 9\/3,Yerawada,Pune,Maharashtra 411006,India","created":"2015-10-28T04:26:47Z","device_id":"F6D16079-BA00-4A26-B0C6-8721EFB5589E","body":{"action":"view","time_spent":65.57192,"target_type":"trip","target_id":null}}
{"user_id":"52686","ip_address":"101.59.66.52","lat":"18.548850","long":"73.904104","city":"Pune","state":"Maharashtra","country":"India","address":"Kalyani Nagar 9 Road 9\/3,Yerawada,Pune,Maharashtra 411006,India","created":"2015-10-28T04:27:02Z","device_id":"F6D16079-BA00-4A26-B0C6-8721EFB5589E","body":{"action":"view","time_spent":14.80933,"target_type":"trip","target_id":null}}
{"user_id":"52686","ip_address":"101.59.66.52","lat":"18.548899","long":"73.904114","city":"Pune","state":"Maharashtra","country":"India","address":"Kalyani Nagar 9 Road 9\/4,Yerawada,Pune,Maharashtra 411006,India","created":"2015-10-28T04:28:29Z","device_id":"F6D16079-BA00-4A26-B0C6-8721EFB5589E","body":{"action":"view","time_spent":86.43589,"target_type":"trip","target_id":null}}
{"user_id":"104164","ip_address":"106.216.162.64","lat":"","long":"","city":"","state":"","country":"","address":"","created":"2015-10-28T04:28:43Z","device_id":"a793fedf7c01d205","body":{"action":"view","time_spent":"43.00","target_type":"trip","target_id":"24018"}}
{"user_id":"104164","ip_address":"106.216.162.64","lat":"","long":"","city":"","state":"","country":"","address":"","created":"2015-10-28T04:30:11Z","device_id":"a793fedf7c01d205","body":{"action":"view","time_spent":"14.00","target_type":"trip","target_id":"8883"}}
{"user_id":"183193","ip_address":"27.4.215.210","lat":"","long":"","city":"","state":"","country":"","address":"","created":"2015-10-28T04:30:21Z","device_id":"28095cdf5be9c345","body":{"action":"view","time_spent":"18.00","target_type":"trip","target_id":"the-city-of-eternal-peace-hampi-752292"}}
{"user_id":"52686","ip_address":"101.59.66.52","lat":"18.548788","long":"73.904095","city":"Pune","state":"Maharashtra","country":"India","address":"Kalyani Nagar 9 Road 9\/2,Yerawada,Pune,Maharashtra 411006,India","created":"2015-10-28T04:31:17Z","device_id":"F6D16079-BA00-4A26-B0C6-8721EFB5589E","body":{"action":"view","time_spent":168.2056,"target_type":"trip","target_id":null}}
{"user_id":"52686","ip_address":"101.59.66.52","lat":"18.548788","long":"73.904095","city":"Pune","state":"Maharashtra","country":"India","address":"Kalyani Nagar 9 Road 9\/2,Yerawada,Pune,Maharashtra 411006,India","created":"2015-10-28T04:31:19Z","device_id":"F6D16079-BA00-4A26-B0C6-8721EFB5589E","body":{"action":"view","time_spent":3.063965,"target_type":"trip","target_id":null}}
{"user_id":"183193","ip_address":"27.4.215.210","lat":"","long":"","city":"","state":"","country":"","address":"","created":"2015-10-28T04:31:30Z","device_id":"28095cdf5be9c345","body":{"action":"view","time_spent":"63.00","target_type":"trip","target_id":"39693"}}
{"user_id":"180230","ip_address":"1.38.4.11","lat":"","long":"","city":"","state":"","country":"","address":"","created":"2015-10-28T04:31:30Z","device_id":"7519e19c53dc9d8","body":{"action":"view","time_spent":"53.00","target_type":"trip","target_id":"12390"}}
{"user_id":"180230","ip_address":"1.38.4.11","lat":"","long":"","city":"","state":"","country":"","address":"","created":"2015-10-28T04:31:38Z","device_id":"7519e19c53dc9d8","body":{"action":"view","time_spent":"8.00","target_type":"trip","target_id":"26457"}}
{"user_id":"98743","ip_address":"182.66.4.197","lat":"22.5941384","long":"88.4264728","city":" Kolkata","state":" West Bengal 700091","country":" India","address":"AH-24, AH Block, Sector II, Salt Lake City, Kolkata, West Bengal 700091, India","created":"2015-10-28T04:31:38Z","device_id":"7cfb7f3835ea79df","body":{"action":"view","time_spent":"161.00","target_type":"trip","target_id":"22951"}}
{"user_id":"180230","ip_address":"1.38.4.11","lat":"","long":"","city":"","state":"","country":"","address":"","created":"2015-10-28T04:31:55Z","device_id":"7519e19c53dc9d8","body":{"action":"view","time_spent":"16.00","target_type":"trip","target_id":"4596"}}
{"user_id":"98743","ip_address":"182.66.4.197","lat":"22.5941384","long":"88.4264728","city":" Kolkata","state":" West Bengal 700091","country":" India","address":"AH-24, AH Block, Sector II, Salt Lake City, Kolkata, West Bengal 700091, India","created":"2015-10-28T04:32:13Z","device_id":"7cfb7f3835ea79df","body":{"action":"view","time_spent":"14.00","target_type":"trip","target_id":"22998"}}
{"user_id":"52686","ip_address":"101.59.66.52","lat":"18.548749","long":"73.904094","city":"Pune","state":"Maharashtra","country":"India","address":"Kalyani Nagar 9 Road 9\/1,Yerawada,Pune,Maharashtra 411006,India","created":"2015-10-28T04:32:15Z","device_id":"F6D16079-BA00-4A26-B0C6-8721EFB5589E","body":{"action":"view","time_spent":16.44081,"target_type":"trip","target_id":null}}
{"user_id":"180230","ip_address":"1.38.4.11","lat":"","long":"","city":"","state":"","country":"","address":"","created":"2015-10-28T04:32:56Z","device_id":"7519e19c53dc9d8","body":{"action":"view","time_spent":"59.00","target_type":"trip","target_id":"38900"}}
{"user_id":"183193","ip_address":"27.4.215.210","lat":"","long":"","city":"","state":"","country":"","address":"","created":"2015-10-28T04:33:39Z","device_id":"28095cdf5be9c345","body":{"action":"view","time_spent":"29.00","target_type":"trip","target_id":"42631"}}
{"user_id":"180230","ip_address":"1.38.4.11","lat":"","long":"","city":"","state":"","country":"","address":"","created":"2015-10-28T04:33:48Z","device_id":"7519e19c53dc9d8","body":{"action":"view","time_spent":"30.00","target_type":"trip","target_id":"4794"}}
{"user_id":"78532","ip_address":"117.203.38.154","lat":"","long":"","city":"","state":"","country":"","address":"","created":"2015-10-28T04:34:02Z","device_id":"39512b0d852b7f22","body":{"action":"view","time_spent":"51.00","target_type":"trip","target_id":"39693"}}
{"user_id":"180230","ip_address":"1.38.4.11","lat":"","long":"","city":"","state":"","country":"","address":"","created":"2015-10-28T04:34:08Z","device_id":"7519e19c53dc9d8","body":{"action":"view","time_spent":"18.00","target_type":"trip","target_id":"4894"}}
{"user_id":"180230","ip_address":"1.38.4.11","lat":"","long":"","city":"","state":"","country":"","address":"","created":"2015-10-28T04:34:37Z","device_id":"7519e19c53dc9d8","body":{"action":"view","time_spent":"25.00","target_type":"trip","target_id":"5818"}}
{"user_id":"78532","ip_address":"117.203.38.154","lat":"","long":"","city":"","state":"","country":"","address":"","created":"2015-10-28T04:35:04Z","device_id":"39512b0d852b7f22","body":{"action":"view","time_spent":"49.00","target_type":"trip","target_id":"42577"}}
{"user_id":"112760","ip_address":"116.72.98.111","lat":"19.1735383","long":"72.9654839","city":" Mumbai","state":" Maharashtra 400081","country":" India","address":"A-1, Gavanpada Road, Gavanpada, Neelam Nagar, Mulund East, Mumbai, Maharashtra 400081, India","created":"2015-10-28T04:35:33Z","device_id":"f1912de3c2787c6c","body":{"action":"view","time_spent":"7.00","target_type":"trip","target_id":"42577"}}
{"user_id":"52686","ip_address":"101.59.66.52","lat":"18.548788","long":"73.904095","city":"Pune","state":"Maharashtra","country":"India","address":"Kalyani Nagar 9 Road 9\/2,Yerawada,Pune,Maharashtra 411006,India","created":"2015-10-28T04:36:10Z","device_id":"F6D16079-BA00-4A26-B0C6-8721EFB5589E","body":{"action":"view","time_spent":179.5881,"target_type":"trip","target_id":null}}
{"user_id":"78532","ip_address":"117.203.38.154","lat":"","long":"","city":"","state":"","country":"","address":"","created":"2015-10-28T04:36:18Z","device_id":"39512b0d852b7f22","body":{"action":"view","time_spent":"26.00","target_type":"trip","target_id":"12966"}}
{"user_id":"52686","ip_address":"101.59.66.52","lat":"18.548705","long":"73.904088","city":"Pune","state":"Maharashtra","country":"India","address":"Kalyani Nagar 9 Road RH\/2\/16,Yerawada,Pune,Maharashtra 411006,India","created":"2015-10-28T04:36:20Z","device_id":"F6D16079-BA00-4A26-B0C6-8721EFB5589E","body":{"action":"view","time_spent":6.338137,"target_type":"trip","target_id":null}}
{"user_id":"133301","ip_address":"117.196.116.209","lat":"23.0451853","long":"72.5275638","city":" Ahmedabad","state":" Gujarat 380052","country":" India","address":"176, Sunrise Park, Gurukul, Ahmedabad, Gujarat 380052, India","created":"2015-10-28T04:36:27Z","device_id":"7175d3fad18a96ce","body":{"action":"view","time_spent":"40.00","target_type":"trip","target_id":"6622"}}
{"user_id":"112760","ip_address":"116.72.98.111","lat":"19.1735383","long":"72.9654839","city":" Mumbai","state":" Maharashtra 400081","country":" India","address":"A-1, Gavanpada Road, Gavanpada, Neelam Nagar, Mulund East, Mumbai, Maharashtra 400081, India","created":"2015-10-28T04:36:31Z","device_id":"f1912de3c2787c6c","body":{"action":"view","time_spent":"55.00","target_type":"trip","target_id":"42605"}}
{"user_id":"52686","ip_address":"101.59.66.52","lat":"18.547393","long":"73.904368","city":"Pune","state":"Maharashtra","country":"India","address":"Kalyani Nagar 9 Road 220\/2\/RH\/8,Yerawada,Pune,Maharashtra 411006,India","created":"2015-10-28T04:37:04Z","device_id":"F6D16079-BA00-4A26-B0C6-8721EFB5589E","body":{"action":"view","time_spent":42.88388,"target_type":"trip","target_id":null}}
{"user_id":"141596","ip_address":"1.39.8.99","lat":"19.204418","long":"72.916597","city":"Mumbai","state":"Maharashtra","country":"India","address":"Borivali East,Mumbai,Maharashtra 400066,India","created":"2015-10-28T04:38:22Z","device_id":"981A4492-C2E5-4B0A-9A52-2AFB48D7E038","body":{"action":"view","time_spent":10.01343,"target_type":"trip","target_id":null}}
{"user_id":"150702","ip_address":"122.162.35.240","lat":"28.5197676","long":"77.0431396","city":" Gurgaon","state":" Haryana 122017","country":" India","address":"1301A, Sector 1, Pocket J, Gurgaon, Haryana 122017, India","created":"2015-10-28T04:39:21Z","device_id":"4e79050eda8074af","body":{"action":"view","time_spent":"1126.00","target_type":"trip","target_id":"the-ultimate-road-trip-794887"}}
{"user_id":"133301","ip_address":"117.196.116.209","lat":"23.0451853","long":"72.5275638","city":" Ahmedabad","state":" Gujarat 380052","country":" India","address":"176, Sunrise Park, Gurukul, Ahmedabad, Gujarat 380052, India","created":"2015-10-28T04:39:34Z","device_id":"7175d3fad18a96ce","body":{"action":"view","time_spent":"144.00","target_type":"trip","target_id":"8514"}}
{"user_id":"78532","ip_address":"117.203.38.154","lat":"","long":"","city":"","state":"","country":"","address":"","created":"2015-10-28T04:40:22Z","device_id":"39512b0d852b7f22","body":{"action":"view","time_spent":"225.00","target_type":"trip","target_id":"12961"}}
{"user_id":"133301","ip_address":"117.196.116.209","lat":"23.0451853","long":"72.5275638","city":" Ahmedabad","state":" Gujarat 380052","country":" India","address":"176, Sunrise Park, Gurukul, Ahmedabad, Gujarat 380052, India","created":"2015-10-28T04:40:37Z","device_id":"7175d3fad18a96ce","body":{"action":"view","time_spent":"58.00","target_type":"trip","target_id":"6365"}}
{"user_id":"209086","ip_address":"115.117.136.87","lat":"","long":"","city":"","state":"","country":"","address":"","created":"2015-10-28T04:41:00Z","device_id":"3cea39e3cb05f252","body":{"action":"view","time_spent":"57.00","target_type":"trip","target_id":"39693"}}
{"user_id":"133301","ip_address":"117.196.116.209","lat":"23.0451853","long":"72.5275638","city":" Ahmedabad","state":" Gujarat 380052","country":" India","address":"176, Sunrise Park, Gurukul, Ahmedabad, Gujarat 380052, India","created":"2015-10-28T04:41:39Z","device_id":"7175d3fad18a96ce","body":{"action":"view","time_spent":"17.00","target_type":"trip","target_id":"10953"}}
{"user_id":"203487","ip_address":"122.167.200.223","lat":"","long":"","city":"","state":"","country":"","address":"","created":"2015-10-28T04:45:39Z","device_id":"ed449713790cbbb","body":{"action":"view","time_spent":"54.00","target_type":"trip","target_id":"39693"}}
{"user_id":"200935","ip_address":"111.91.75.244","lat":"","long":"","city":"","state":"","country":"","address":"","created":"2015-10-28T04:45:51Z","device_id":"7ef3524bb006daa4","body":{"action":"view","time_spent":"646.00","target_type":"trip","target_id":"best-bars-in-mumbai-431368"}}
{"user_id":"134632","ip_address":"115.244.218.230","lat":"13.051061","long":"80.2078386","city":" Chennai","state":" Tamil Nadu 600026","country":" India","address":"1\/79, Main Road, Kumaran Colony, Vadapalani, Chennai, Tamil Nadu 600026, India","created":"2015-10-28T04:46:49Z","device_id":"91acdaa52919bc5b","body":{"action":"view","time_spent":"47.00","target_type":"trip","target_id":"the-city-of-eternal-peace-hampi-752292"}}
{"user_id":"208054","ip_address":"103.16.176.3","lat":"28.527931","long":"77.144814","city":"New Delhi","state":"Delhi","country":"India","address":"D 7 Exit Road 8195,Vasant Kunj,New Delhi,Delhi 110070,India","created":"2015-10-28T04:47:58Z","device_id":"B5FE3A05-2D48-4049-B662-F87048E54A84","body":{"action":"view","time_spent":68.72446,"target_type":"trip","target_id":null}}
{"user_id":"187728","ip_address":"171.50.58.245","lat":"","long":"","city":"","state":"","country":"","address":"","created":"2015-10-28T04:48:27Z","device_id":"ef092b1dadc6d800","body":{"action":"view","time_spent":"201.00","target_type":"trip","target_id":"triund-trek-134445"}}
{"user_id":"200571","ip_address":"1.39.37.188","lat":"","long":"","city":"","state":"","country":"","address":"","created":"2015-10-28T04:50:41Z","device_id":"8725e4ca0e2bead1","body":{"action":"view","time_spent":"9.00","target_type":"trip","target_id":"6307"}}
{"user_id":"203487","ip_address":"122.167.200.223","lat":"","long":"","city":"","state":"","country":"","address":"","created":"2015-10-28T04:51:22Z","device_id":"ed449713790cbbb","body":{"action":"view","time_spent":"4.00","target_type":"trip","target_id":"42582"}}
{"user_id":"200571","ip_address":"1.39.37.188","lat":"","long":"","city":"","state":"","country":"","address":"","created":"2015-10-28T04:51:30Z","device_id":"8725e4ca0e2bead1","body":{"action":"view","time_spent":"47.00","target_type":"trip","target_id":"6307"}}
{"user_id":"200571","ip_address":"1.39.37.188","lat":"","long":"","city":"","state":"","country":"","address":"","created":"2015-10-28T04:51:43Z","device_id":"8725e4ca0e2bead1","body":{"action":"view","time_spent":"12.00","target_type":"trip","target_id":"6307"}}
{"user_id":"203487","ip_address":"122.167.200.223","lat":"","long":"","city":"","state":"","country":"","address":"","created":"2015-10-28T04:52:39Z","device_id":"ed449713790cbbb","body":{"action":"view","time_spent":"67.00","target_type":"trip","target_id":"16208"}}
{"user_id":"203487","ip_address":"122.167.200.223","lat":"","long":"","city":"","state":"","country":"","address":"","created":"2015-10-28T04:52:54Z","device_id":"ed449713790cbbb","body":{"action":"view","time_spent":"12.00","target_type":"trip","target_id":"27419"}}
{"user_id":"204596","ip_address":"1.39.61.50","lat":"","long":"","city":"","state":"","country":"","address":"","created":"2015-10-28T04:53:06Z","device_id":"94fdf8e68005e0fc","body":{"action":"view","time_spent":"25.00","target_type":"trip","target_id":"42706"}}
{"user_id":"203487","ip_address":"122.167.200.223","lat":"","long":"","city":"","state":"","country":"","address":"","created":"2015-10-28T04:53:10Z","device_id":"ed449713790cbbb","body":{"action":"view","time_spent":"8.00","target_type":"trip","target_id":"41968"}}
{"user_id":"203487","ip_address":"122.167.200.223","lat":"","long":"","city":"","state":"","country":"","address":"","created":"2015-10-28T04:54:36Z","device_id":"ed449713790cbbb","body":{"action":"view","time_spent":"80.00","target_type":"trip","target_id":"41225"}}
{"user_id":"204596","ip_address":"1.39.61.50","lat":"","long":"","city":"","state":"","country":"","address":"","created":"2015-10-28T04:55:12Z","device_id":"94fdf8e68005e0fc","body":{"action":"view","time_spent":"68.00","target_type":"trip","target_id":"41918"}}
{"user_id":"203487","ip_address":"122.167.200.223","lat":"","long":"","city":"","state":"","country":"","address":"","created":"2015-10-28T04:55:13Z","device_id":"ed449713790cbbb","body":{"action":"view","time_spent":"34.00","target_type":"trip","target_id":"41073"}}
{"user_id":"112760","ip_address":"116.72.98.111","lat":"19.1735383","long":"72.9654839","city":" Mumbai","state":" Maharashtra 400081","country":" India","address":"A-1, Gavanpada Road, Gavanpada, Neelam Nagar, Mulund East, Mumbai, Maharashtra 400081, India","created":"2015-10-28T04:55:21Z","device_id":"f1912de3c2787c6c","body":{"action":"view","time_spent":"378.00","target_type":"trip","target_id":"42663"}}
{"user_id":"204596","ip_address":"1.39.61.50","lat":"","long":"","city":"","state":"","country":"","address":"","created":"2015-10-28T04:55:24Z","device_id":"94fdf8e68005e0fc","body":{"action":"view","time_spent":"13.00","target_type":"trip","target_id":"42629"}}
{"user_id":"58408","ip_address":"1.39.8.179","lat":"19.1694465","long":"72.9562059","city":" Mumbai","state":" Maharashtra 400081","country":" India","address":"Sant Tukaram Road, Hanuman Chowk, Mulund East, Mumbai, Maharashtra 400081, India","created":"2015-10-28T04:56:20Z","device_id":"b810afcbb3b2af1f","body":{"action":"view","time_spent":"26.00","target_type":"trip","target_id":"best-bars-in-mumbai-431368"}}
{"user_id":"142740","ip_address":"182.58.53.250","lat":"19.103475","long":"72.8500833","city":" Mumbai","state":" Maharashtra 400057","country":" India","address":"3\/A, Hanuman Road, Vile Parle East, Vile Parle, Mumbai, Maharashtra 400057, India","created":"2015-10-28T04:58:22Z","device_id":"6a9aad489763590e","body":{"action":"view","time_spent":"28.00","target_type":"trip","target_id":"37705"}}
{"user_id":"203487","ip_address":"122.167.200.223","lat":"","long":"","city":"","state":"","country":"","address":"","created":"2015-10-28T04:58:26Z","device_id":"ed449713790cbbb","body":{"action":"view","time_spent":"175.00","target_type":"trip","target_id":"32792"}}
{"user_id":"142740","ip_address":"182.58.53.250","lat":"19.103475","long":"72.8500833","city":" Mumbai","state":" Maharashtra 400057","country":" India","address":"3\/A, Hanuman Road, Vile Parle East, Vile Parle, Mumbai, Maharashtra 400057, India","created":"2015-10-28T04:58:36Z","device_id":"6a9aad489763590e","body":{"action":"view","time_spent":"135.00","target_type":"trip","target_id":"16450"}}
{"user_id":"44607","ip_address":"115.118.150.89","lat":"28.5854825","long":"77.16416","city":" New Delhi","state":" Delhi 110021","country":" India","address":"G\/14, Benito Juarez Marg, Block G, Nanakpura, Moti Bagh South, New Delhi, Delhi 110021, India","created":"2015-10-28T04:58:54Z","device_id":"4c6bb70256af5bfe","body":{"action":"view","time_spent":"45.00","target_type":"trip","target_id":"42577"}}
{"user_id":"203487","ip_address":"122.167.200.223","lat":"","long":"","city":"","state":"","country":"","address":"","created":"2015-10-28T04:59:28Z","device_id":"ed449713790cbbb","body":{"action":"view","time_spent":"45.00","target_type":"trip","target_id":"25365"}}
{"user_id":"203487","ip_address":"122.167.200.223","lat":"","long":"","city":"","state":"","country":"","address":"","created":"2015-10-28T04:59:47Z","device_id":"ed449713790cbbb","body":{"action":"view","time_spent":"16.00","target_type":"trip","target_id":"25069"}}
{"user_id":"44607","ip_address":"115.118.150.89","lat":"28.5854825","long":"77.16416","city":" New Delhi","state":" Delhi 110021","country":" India","address":"G\/14, Benito Juarez Marg, Block G, Nanakpura, Moti Bagh South, New Delhi, Delhi 110021, India","created":"2015-10-28T04:59:58Z","device_id":"4c6bb70256af5bfe","body":{"action":"view","time_spent":"22.00","target_type":"trip","target_id":"42629"}}
