{"user_id":"182961","ip_address":"1.39.39.229","lat":null,"long":null,"city":null,"state":null,"country":null,"address":null,"created":"2015-10-28T18:03:51Z","device_id":"0216E9DC-AA5D-4FCB-B474-CD59F9A8BC1D","body":{"action":"like","target_type":"trip","target_id":"3719"}}
{"user_id":"71768","ip_address":"175.100.147.2","lat":"21.1934039","long":"72.8524107","city":" Surat","state":" Gujarat 395002","country":" India","address":"Surat - Kadodara Road, Umarwada, Surat, Gujarat 395002, India","created":"2015-10-28T18:07:14Z","device_id":"b1a81ddd7313cb09","body":{"action":"like","target_type":"trip","target_id":"39693"}}
{"user_id":"189120","ip_address":"183.82.191.125","lat":"","long":"","city":"","state":"","country":"","address":"","created":"2015-10-28T18:24:40Z","device_id":"feb8537edae97ca7","body":{"action":"like","target_type":"trip","target_id":"42873"}}
{"user_id":"189120","ip_address":"183.82.191.125","lat":"","long":"","city":"","state":"","country":"","address":"","created":"2015-10-28T18:24:41Z","device_id":"feb8537edae97ca7","body":{"action":"like","target_type":"trip","target_id":"42873"}}
{"user_id":"189120","ip_address":"183.82.191.125","lat":"","long":"","city":"","state":"","country":"","address":"","created":"2015-10-28T18:24:41Z","device_id":"feb8537edae97ca7","body":{"action":"like","target_type":"trip","target_id":"42873"}}
{"user_id":"189120","ip_address":"183.82.191.125","lat":"","long":"","city":"","state":"","country":"","address":"","created":"2015-10-28T18:24:42Z","device_id":"feb8537edae97ca7","body":{"action":"like","target_type":"trip","target_id":"42873"}}
{"user_id":"189120","ip_address":"183.82.191.125","lat":"","long":"","city":"","state":"","country":"","address":"","created":"2015-10-28T18:24:43Z","device_id":"feb8537edae97ca7","body":{"action":"like","target_type":"trip","target_id":"42873"}}
{"user_id":"189120","ip_address":"183.82.191.125","lat":"","long":"","city":"","state":"","country":"","address":"","created":"2015-10-28T18:24:44Z","device_id":"feb8537edae97ca7","body":{"action":"like","target_type":"trip","target_id":"42873"}}
{"user_id":"189120","ip_address":"183.82.191.125","lat":"","long":"","city":"","state":"","country":"","address":"","created":"2015-10-28T18:24:45Z","device_id":"feb8537edae97ca7","body":{"action":"like","target_type":"trip","target_id":"42873"}}
{"user_id":"189120","ip_address":"183.82.191.125","lat":"","long":"","city":"","state":"","country":"","address":"","created":"2015-10-28T18:24:46Z","device_id":"feb8537edae97ca7","body":{"action":"like","target_type":"trip","target_id":"42873"}}
{"user_id":"189120","ip_address":"183.82.191.125","lat":"","long":"","city":"","state":"","country":"","address":"","created":"2015-10-28T18:24:47Z","device_id":"feb8537edae97ca7","body":{"action":"like","target_type":"trip","target_id":"42873"}}
{"user_id":"189120","ip_address":"183.82.191.125","lat":"","long":"","city":"","state":"","country":"","address":"","created":"2015-10-28T18:24:47Z","device_id":"feb8537edae97ca7","body":{"action":"like","target_type":"trip","target_id":"42873"}}
{"user_id":"189120","ip_address":"183.82.191.125","lat":"","long":"","city":"","state":"","country":"","address":"","created":"2015-10-28T18:24:48Z","device_id":"feb8537edae97ca7","body":{"action":"like","target_type":"trip","target_id":"42873"}}
{"user_id":"106526","ip_address":"183.83.50.171","lat":null,"long":null,"city":null,"state":null,"country":null,"address":null,"created":"2015-10-28T18:44:24Z","device_id":"4785ba0af148f0eb","body":{"action":"like","target_type":"trip","target_id":"41443"}}
{"user_id":"209174","ip_address":"124.123.14.247","lat":"","long":"","city":"","state":"","country":"","address":"","created":"2015-10-28T18:46:41Z","device_id":"7f34332ed72b0042","body":{"action":"like","target_type":"trip","target_id":"38423"}}
{"user_id":"146080","ip_address":"45.115.6.186","lat":"","long":"","city":"","state":"","country":"","address":"","created":"2015-10-28T18:54:03Z","device_id":"5cc7039f86b1b4c3","body":{"action":"like","target_type":"trip","target_id":"39693"}}
