{"user_id":"48207","ip_address":"14.98.79.188","lat":null,"long":null,"user_agent":"Mozilla\/5.0 (Linux; Android 4.4.2; ASUS_T00J Build\/KVT49L) AppleWebKit\/537.36 (KHTML, like Gecko) Version\/4.0 Chrome\/30.0.0.0 Mobile Safari\/537.36 [FB_IAB\/FB4A;FBAV\/36.0.0.39.166;]","city":null,"state":null,"country":null,"address":null,"created":"2015-10-28T15:03:08Z","body":{"action":"follow","followed_id":"26922"}}
{"user_id":"207890","ip_address":"117.223.36.83","lat":null,"long":null,"user_agent":"Mozilla\/5.0 (Linux; Android 4.4.4; HM NOTE 1LTE Build\/KTU84P) AppleWebKit\/537.36 (KHTML, like Gecko) Chrome\/45.0.2454.94 Mobile Safari\/537.36","city":null,"state":null,"country":null,"address":null,"created":"2015-10-28T15:25:37Z","body":{"action":"follow","followed_id":"174458"}}
{"user_id":"65696","ip_address":"106.194.160.154","lat":null,"long":null,"user_agent":"Mozilla\/5.0 (Linux; Android 4.4.2; CHM-U01 Build\/HonorCHM-U01) AppleWebKit\/537.36 (KHTML, like Gecko) Chrome\/45.0.2454.94 Mobile Safari\/537.36","city":null,"state":null,"country":null,"address":null,"created":"2015-10-28T15:30:57Z","body":{"action":"follow","followed_id":"202065"}}
